{
    "countries": [
        {
            "id": 1,
            "name": "United States",
            "Gdp": "20.94 Trillion Dollars as of 2020",
            "Population": "329.5 million as of 2020",
            "Population density": "36 (P/Km²)",
            "Flag": "https://www.countryflags.io/us/flat/64.png",
            "Area": "3.797 million mi²",
            "Map": "",
            "Capital": "Washington DC",
            "Latitude": "38.897957",
            "Longitude": "-97.036560",
            "Covid": "10/2/21"
        },
        {
            "id": 2,
            "name": "Mexico",
            "Gdp": "1.076 trillion USD (2020)",
            "Population": "128.9 million (2020)",
            "Population density": "66 per Km2",
            "Flag": "https://www.countryflags.io/mx/flat/64.png",
            "Area": "761,600 mi²",
            "Map": "", 
            "Capital": "Mexico City",
            "Latitude": "19.432608",
            "Longitude": "-99.133209",
            "Covid": "10/2/21"
        },
        {
            "id": 3,
            "name": "Canada",
            "Gdp": "1.643 trillion USD (2020)",
            "Population": "38.01 million (2020)",
            "Population density": "4 per Km2",
            "Flag": "https://www.countryflags.io/ca/flat/64.png",
            "Area": "3.855 million mi²",
            "Map": "",
            "Capital": "Ottawa",
            "Latitude": "62.2270",
            "Longitude": "-105.3809",
            "Covid": "10/2/21"
        },
        {
            "id": 4,
            "name": "United States",
            "Gdp": "20.94 Trillion Dollars as of 2020",
            "Population": "329.5 million as of 2020",
            "Population density": "36 (P/Km²)",
            "Flag": "https://www.countryflags.io/us/flat/64.png",
            "Area": "3.797 million mi²",
            "Map": "",
            "Capital": "Washington DC",
            "Latitude": "38.897957",
            "Longitude": "-97.036560",
            "Covid": "10/2/21"
        },
        {
            "id": 5,
            "name": "Mexico",
            "Gdp": "1.076 trillion USD (2020)",
            "Population": "128.9 million (2020)",
            "Population density": "66 per Km2",
            "Flag": "https://www.countryflags.io/mx/flat/64.png",
            "Area": "761,600 mi²",
            "Map": "", 
            "Capital": "Mexico City",
            "Latitude": "19.432608",
            "Longitude": "-99.133209",
            "Covid": "10/2/21"
        },
        {
            "id": 6,
            "name": "Canada",
            "Gdp": "1.643 trillion USD (2020)",
            "Population": "38.01 million (2020)",
            "Population density": "4 per Km2",
            "Flag": "https://www.countryflags.io/ca/flat/64.png",
            "Area": "3.855 million mi²",
            "Map": "",
            "Capital": "Ottawa",
            "Latitude": "62.2270",
            "Longitude": "-105.3809",
            "Covid": "10/2/21"
        },
        {
            "id": 7,
            "name": "United States",
            "Gdp": "20.94 Trillion Dollars as of 2020",
            "Population": "329.5 million as of 2020",
            "Population density": "36 (P/Km²)",
            "Flag": "https://www.countryflags.io/us/flat/64.png",
            "Area": "3.797 million mi²",
            "Map": "",
            "Capital": "Washington DC",
            "Latitude": "38.897957",
            "Longitude": "-97.036560",
            "Covid": "10/2/21"
        },
        {
            "id": 8,
            "name": "Mexico",
            "Gdp": "1.076 trillion USD (2020)",
            "Population": "128.9 million (2020)",
            "Population density": "66 per Km2",
            "Flag": "https://www.countryflags.io/mx/flat/64.png",
            "Area": "761,600 mi²",
            "Map": "", 
            "Capital": "Mexico City",
            "Latitude": "19.432608",
            "Longitude": "-99.133209",
            "Covid": "10/2/21"
        },
        {
            "id": 9,
            "name": "Canada",
            "Gdp": "1.643 trillion USD (2020)",
            "Population": "38.01 million (2020)",
            "Population density": "4 per Km2",
            "Flag": "https://www.countryflags.io/ca/flat/64.png",
            "Area": "3.855 million mi²",
            "Map": "",
            "Capital": "Ottawa",
            "Latitude": "62.2270",
            "Longitude": "-105.3809",
            "Covid": "10/2/21"
        },
        {
            "id": 10,
            "name": "United States",
            "Gdp": "20.94 Trillion Dollars as of 2020",
            "Population": "329.5 million as of 2020",
            "Population density": "36 (P/Km²)",
            "Flag": "https://www.countryflags.io/us/flat/64.png",
            "Area": "3.797 million mi²",
            "Map": "",
            "Capital": "Washington DC",
            "Latitude": "38.897957",
            "Longitude": "-97.036560",
            "Covid": "10/2/21"
        },
        {
            "id": 11,
            "name": "Mexico",
            "Gdp": "1.076 trillion USD (2020)",
            "Population": "128.9 million (2020)",
            "Population density": "66 per Km2",
            "Flag": "https://www.countryflags.io/mx/flat/64.png",
            "Area": "761,600 mi²",
            "Map": "", 
            "Capital": "Mexico City",
            "Latitude": "19.432608",
            "Longitude": "-99.133209",
            "Covid": "10/2/21"
        },
        {
            "id": 12,
            "name": "Canada",
            "Gdp": "1.643 trillion USD (2020)",
            "Population": "38.01 million (2020)",
            "Population density": "4 per Km2",
            "Flag": "https://www.countryflags.io/ca/flat/64.png",
            "Area": "3.855 million mi²",
            "Map": "",
            "Capital": "Ottawa",
            "Latitude": "62.2270",
            "Longitude": "-105.3809",
            "Covid": "10/2/21"
        },
        {
            "id": 13,
            "name": "United States",
            "Gdp": "20.94 Trillion Dollars as of 2020",
            "Population": "329.5 million as of 2020",
            "Population density": "36 (P/Km²)",
            "Flag": "https://www.countryflags.io/us/flat/64.png",
            "Area": "3.797 million mi²",
            "Map": "",
            "Capital": "Washington DC",
            "Latitude": "38.897957",
            "Longitude": "-97.036560",
            "Covid": "10/2/21"
        },
        {
            "id": 14,
            "name": "Mexico",
            "Gdp": "1.076 trillion USD (2020)",
            "Population": "128.9 million (2020)",
            "Population density": "66 per Km2",
            "Flag": "https://www.countryflags.io/mx/flat/64.png",
            "Area": "761,600 mi²",
            "Map": "", 
            "Capital": "Mexico City",
            "Latitude": "19.432608",
            "Longitude": "-99.133209",
            "Covid": "10/2/21"
        },
        {
            "id": 15,
            "name": "Canada",
            "Gdp": "1.643 trillion USD (2020)",
            "Population": "38.01 million (2020)",
            "Population density": "4 per Km2",
            "Flag": "https://www.countryflags.io/ca/flat/64.png",
            "Area": "3.855 million mi²",
            "Map": "",
            "Capital": "Ottawa",
            "Latitude": "62.2270",
            "Longitude": "-105.3809",
            "Covid": "10/2/21"
        }
    ]
}